{
  "status": 200,
  "message": "Successful",
  "resourceLocation": "https://api.shipwire.com/api/v3/orders?offset=0&limit=2&expand=trackings",
  "resource": {
    "offset": 0,
    "total": 17,
    "previous": null,
    "next": "https://api.shipwire.com/api/v3/orders?offset=2&limit=2&expand=trackings",
    "items": [
      {
        "resourceLocation": "https://api.shipwire.com/api/v3/orders/198651672",
        "resource": {
          "externalId": "51552|4053055239|3333121735",
          "orderNo": "#1288.1",
          "commerceName": "shopify",
          "processAfterDate": "2016-08-26T01:30:00-07:00",
          "lastUpdatedDate": "2016-08-26T10:13:34-07:00",
          "status": "delivered",
          "vendorId": null,
          "vendorExternalId": null,
          "purchaseOrderId": null,
          "purchaseOrderExternalId": null,
          "purchaseOrderNo": null,
          "id": 198651672,
          "transactionId": "1471468802-828946-1",
          "needsReview": 0,
          "holds": {
            "resourceLocation": "https://api.beta.shipwire.com/api/v3/orders/92041438/holds?offset=0&limit=20&id=92046055&expand=holds",
            "resource": {
              "offset": 0,
              "total": 2,
              "previous": null,
              "next": null,
              "items": [
                {
                  "resourceLocation": "https://api.beta.shipwire.com/api/v3/orders/92041438/holds/724752",
                  "resource": {
                    "id": 724752,
                    "orderId": 92041438,
                    "externalOrderId": "4187662407",
                    "type": "customer",
                    "subType": "nomethod",
                    "description": "Shipping method must be selected",
                    "appliedDate": "2016-09-06T16:56:28-07:00",
                    "clearedDate": null
                  }
                }
              ]
            }
          },
          "items": {
            "resourceLocation": "https://api.shipwire.com/api/v3/orders/198651672/items?offset=0&limit=20&expand=trackings"
          },
          "trackings": {
            "resourceLocation": "https://api.shipwire.com/api/v3/orders/198651672/trackings?offset=0&limit=20&expand=trackings",
            "resource": {
              "offset": 0,
              "total": 1,
              "previous": null,
              "next": null,
              "items": [
                {
                  "resourceLocation": "https://api.shipwire.com/api/v3/orders/198651672/trackings/150441642",
                  "resource": {
                    "id": 150441642,
                    "orderId": 198651672,
                    "orderExternalId": "51552|4053055239|3333121735",
                    "pieceId": null,
                    "tracking": "9400110200793110752954",
                    "carrier": "USPS",
                    "scacCode": null,
                    "url": "https://tools.usps.com/go/TrackConfirmAction.action?tLabels=9400110200793110752954",
                    "summary": "Your item was delivered at the front door or porch at 10:21 am on August 29, 2016 in SEATTLE, WA 98122.",
                    "summaryDate": "2016-08-29T12:26:27-07:00",
                    "labelCreatedDate": "2016-08-26T05:42:00-07:00",
                    "trackedDate": "2016-08-29T12:26:27-07:00",
                    "firstScanDate": "2016-08-28T16:48:00-07:00",
                    "firstScanCity": "FEDERAL WAY",
                    "firstScanRegion": "WA",
                    "firstScanPostalCode": "98003",
                    "firstScanCountry": "98003",
                    "deliveredDate": "2016-08-29T10:21:00-07:00",
                    "deliveryCity": "SEATTLE",
                    "deliveryRegion": "WA",
                    "deliveryPostalCode": "98122",
                    "deliveryCountry": "",
                    "createdDate": "2016-08-26T10:13:34-07:00"
                  }
                }
              ]
            }
          },
          "returns": {
            "resourceLocation": "https://api.shipwire.com/api/v3/orders/198651672/returns?offset=0&limit=20&expand=trackings"
          },
          "options": {
            "resourceLocation": null,
            "resource": {
              "warehouseId": null,
              "warehouseExternalId": null,
              "warehouseRegion": null,
              "warehouseArea": null,
              "serviceLevelCode": null,
              "carrierCode": "USPS FC",
              "sameDay": "NOT REQUESTED",
              "forceDuplicate": 0,
              "forceAddress": 0,
              "testOrder": 0,
              "channelName": null,
              "referrer": ""
            }
          },
          "shipFrom": {
            "resourceLocation": null,
            "resource": {
              "company": "Fulfillment Center"
            }
          },
          "shipTo": {
            "resourceLocation": null,
            "resource": {
              "email": "jshaffer@chefsteps.com",
              "name": "Jeremy Shaffer",
              "company": null,
              "address1": "1807 E HOWELL ST",
              "address2": "",
              "address3": "",
              "city": "SEATTLE",
              "state": "WA",
              "postalCode": "98122",
              "country": "US",
              "phone": "650-561-4800",
              "isCommercial": 0,
              "isPoBox": 0
            }
          },
          "commercialInvoice": {
            "resourceLocation": null
          },
          "packingList": {
            "resourceLocation": null
          },
          "shippingLabel": {
            "resourceLocation": null
          },
          "routing": {
            "resourceLocation": null,
            "resource": {
              "warehouseId": 19,
              "warehouseExternalId": null,
              "warehouseName": "Mira Loma",
              "physicalWarehouseId": null,
              "originLongitude": 34.0081,
              "originLatitude": -117.557,
              "destinationLongitude": "-122.3056",
              "destinationLatitude": "47.6116"
            }
          },
          "events": {
            "resourceLocation": null,
            "resource": {
              "createdDate": "2016-08-17T14:20:02-07:00",
              "pickedUpDate": null,
              "submittedDate": "2016-08-26T01:46:03-07:00",
              "processedDate": "2016-08-26T01:39:23-07:00",
              "completedDate": "2016-08-26T10:13:34-07:00",
              "expectedDate": "2016-09-02T00:00:00-07:00",
              "cancelledDate": null,
              "returnedDate": null,
              "lastManualUpdateDate": null
            }
          },
          "pricing": {
            "resourceLocation": null,
            "resource": {
              "shipping": 4.35,
              "packaging": 0,
              "insurance": 0.75,
              "handling": 2.85,
              "total": 7.95
            }
          },
          "shipwireAnywhere": {
            "resourceLocation": null,
            "resource": {
              "status": null
            }
          },
          "pricingEstimate": {
            "resourceLocation": null,
            "resource": {
              "total": 5.1,
              "insurance": 0.75,
              "shipping": 4.35,
              "packaging": 0,
              "handling": 0
            }
          },
          "freightSummary": {
            "resourceLocation": null,
            "resource": {
              "totalWeight": "0.00",
              "weightUnit": null,
              "measurementType": null
            }
          },
          "splitOrders": {
            "resourceLocation": "https://api.shipwire.com/api/v3/orders/198651672/splitOrders?offset=0&limit=20&expand=trackings"
          },
          "pieces": {
            "resourceLocation": "https://api.shipwire.com/api/v3/orders/198651672/pieces?offset=0&limit=20&expand=trackings"
          }
        }
      },
      {
        "resourceLocation": "https://api.shipwire.com/api/v3/orders/198794572",
        "resource": {
          "externalId": "51552|4053596039|3341891527",
          "orderNo": "#1292.1",
          "commerceName": "shopify",
          "processAfterDate": "2016-08-26T01:30:00-07:00",
          "lastUpdatedDate": "2016-08-26T10:13:34-07:00",
          "status": "delivered",
          "vendorId": null,
          "vendorExternalId": null,
          "purchaseOrderId": null,
          "purchaseOrderExternalId": null,
          "purchaseOrderNo": null,
          "id": 198794572,
          "transactionId": "1471536814-788350-1",
          "needsReview": 0,
          "holds": {
            "resourceLocation": "https://api.beta.shipwire.com/api/v3/orders/92041438/holds?offset=0&limit=20&id=92046055&expand=holds",
            "resource": {
              "offset": 0,
              "total": 2,
              "previous": null,
              "next": null,
              "items": [
                {
                  "resourceLocation": "https://api.beta.shipwire.com/api/v3/orders/92041438/holds/724752",
                  "resource": {
                    "id": 724752,
                    "orderId": 92041438,
                    "externalOrderId": "4187662407",
                    "type": "customer",
                    "subType": "nomethod",
                    "description": "Shipping method must be selected",
                    "appliedDate": "2016-09-06T16:56:28-07:00",
                    "clearedDate": null
                  }
                }
              ]
            }
          },
          "items": {
            "resourceLocation": "https://api.shipwire.com/api/v3/orders/198794572/items?offset=0&limit=20&expand=trackings"
          },
          "trackings": {
            "resourceLocation": "https://api.shipwire.com/api/v3/orders/198794572/trackings?offset=0&limit=20&expand=trackings",
            "resource": {
              "offset": 0,
              "total": 1,
              "previous": null,
              "next": null,
              "items": [
                {
                  "resourceLocation": "https://api.shipwire.com/api/v3/orders/198794572/trackings/150441652",
                  "resource": {
                    "id": 150441652,
                    "orderId": 198794572,
                    "orderExternalId": "51552|4053596039|3341891527",
                    "pieceId": null,
                    "tracking": "9400110200793110752978",
                    "carrier": "USPS",
                    "scacCode": null,
                    "url": "https://tools.usps.com/go/TrackConfirmAction.action?tLabels=9400110200793110752978",
                    "summary": "Your item was delivered in or at the mailbox at 3:46 pm on August 29, 2016 in SEATTLE, WA 98101.",
                    "summaryDate": "2016-08-29T18:23:10-07:00",
                    "labelCreatedDate": "2016-08-26T05:42:00-07:00",
                    "trackedDate": "2016-08-29T18:23:10-07:00",
                    "firstScanDate": "2016-08-28T16:48:00-07:00",
                    "firstScanCity": "FEDERAL WAY",
                    "firstScanRegion": "WA",
                    "firstScanPostalCode": "98003",
                    "firstScanCountry": "98003",
                    "deliveredDate": "2016-08-29T15:46:00-07:00",
                    "deliveryCity": "SEATTLE",
                    "deliveryRegion": "WA",
                    "deliveryPostalCode": "98101",
                    "deliveryCountry": "",
                    "createdDate": "2016-08-26T10:13:34-07:00"
                  }
                }
              ]
            }
          },
          "returns": {
            "resourceLocation": "https://api.shipwire.com/api/v3/orders/198794572/returns?offset=0&limit=20&expand=trackings"
          },
          "options": {
            "resourceLocation": null,
            "resource": {
              "warehouseId": null,
              "warehouseExternalId": null,
              "warehouseRegion": null,
              "warehouseArea": null,
              "serviceLevelCode": null,
              "carrierCode": "USPS FC",
              "sameDay": "NOT REQUESTED",
              "forceDuplicate": 0,
              "forceAddress": 0,
              "testOrder": 0,
              "channelName": null,
              "referrer": ""
            }
          },
          "shipFrom": {
            "resourceLocation": null,
            "resource": {
              "company": "Fulfillment Center"
            }
          },
          "shipTo": {
            "resourceLocation": null,
            "resource": {
              "email": "jshaffer+chefsteps@chefsteps.com",
              "name": "Jeremy Shaffer",
              "company": "ChefSteps",
              "address1": "1501 PIKE PL STE 300",
              "address2": "",
              "address3": "",
              "city": "SEATTLE",
              "state": "WA",
              "postalCode": "98101",
              "country": "US",
              "phone": "650-561-4800",
              "isCommercial": 1,
              "isPoBox": 0
            }
          },
          "commercialInvoice": {
            "resourceLocation": null
          },
          "packingList": {
            "resourceLocation": null
          },
          "shippingLabel": {
            "resourceLocation": null
          },
          "routing": {
            "resourceLocation": null,
            "resource": {
              "warehouseId": 19,
              "warehouseExternalId": null,
              "warehouseName": "Mira Loma",
              "physicalWarehouseId": null,
              "originLongitude": 34.0081,
              "originLatitude": -117.557,
              "destinationLongitude": "-122.3305",
              "destinationLatitude": "47.6114"
            }
          },
          "events": {
            "resourceLocation": null,
            "resource": {
              "createdDate": "2016-08-18T09:13:34-07:00",
              "pickedUpDate": null,
              "submittedDate": "2016-08-26T01:46:03-07:00",
              "processedDate": "2016-08-26T01:39:21-07:00",
              "completedDate": "2016-08-26T10:13:34-07:00",
              "expectedDate": "2016-09-02T00:00:00-07:00",
              "cancelledDate": null,
              "returnedDate": null,
              "lastManualUpdateDate": null
            }
          },
          "pricing": {
            "resourceLocation": null,
            "resource": {
              "shipping": 4.35,
              "packaging": 0,
              "insurance": 0.75,
              "handling": 2.85,
              "total": 7.95
            }
          },
          "shipwireAnywhere": {
            "resourceLocation": null,
            "resource": {
              "status": null
            }
          },
          "pricingEstimate": {
            "resourceLocation": null,
            "resource": {
              "total": 5.1,
              "insurance": 0.75,
              "shipping": 4.35,
              "packaging": 0,
              "handling": 0
            }
          },
          "freightSummary": {
            "resourceLocation": null,
            "resource": {
              "totalWeight": "0.00",
              "weightUnit": null,
              "measurementType": null
            }
          },
          "splitOrders": {
            "resourceLocation": "https://api.shipwire.com/api/v3/orders/198794572/splitOrders?offset=0&limit=20&expand=trackings"
          },
          "pieces": {
            "resourceLocation": "https://api.shipwire.com/api/v3/orders/198794572/pieces?offset=0&limit=20&expand=trackings"
          }
        }
      }
    ]
  }
}